Aaron Mackay - Text Pre-Processing
…
# udmodel <- udpipe::udpipe_download_model(language = "english")

matthew_token <- matthew_df %>% 
    unnest_tokens(output = "word",
                input = text,
                token = "words") %>% 
  anti_join(stop_words)

Joining with `by = join_by(word)`

matthew_token %>% 
  mutate(lemma = lemmatize_words(word)) %>% 
  count(lemma, sort = TRUE)

# A tibble: 1,471 × 2
   lemma        n
   <chr>    <int>
 1 ye         263
 2 jesus      172
 3 thou       151
 4 you        100
 5 thy         90
 6 son         82
 7 heaven      78
 8 lord        76
 9 disciple    75
10 behold      62
# ℹ 1,461 more rows
…
